{
    "key": "group_57e281587f1bb",
    "title": "OPT: Theme Settings",
    "fields": [
        {
            "key": "field_5553329c95271",
            "label": "Social Networks",
            "name": "",
            "type": "tab",
            "instructions": "",
            "required": 0,
            "conditional_logic": 0,
            "wrapper": {
                "width": "",
                "class": "",
                "id": ""
            },
            "placement": "top",
            "endpoint": 0
        },
        {
            "key": "field_550fdf33dc121",
            "label": "Social Networks",
            "name": "social_networks_options",
            "type": "repeater",
            "instructions": "Please, select social networks you want to display and add a correct link.",
            "required": 0,
            "conditional_logic": 0,
            "wrapper": {
                "width": "",
                "class": "",
                "id": ""
            },
            "row_min": "",
            "row_limit": "",
            "layout": "table",
            "button_label": "Add Social Network",
            "min": 0,
            "max": 0,
            "collapsed": "",
            "sub_fields": [
                {
                    "key": "field_550fdf85dc122",
                    "label": "Social Network",
                    "name": "network_option",
                    "type": "select",
                    "instructions": "Select social networks you want to display on your website:",
                    "required": 0,
                    "conditional_logic": 0,
                    "wrapper": {
                        "width": 15,
                        "class": "",
                        "id": ""
                    },
                    "choices": {
                        "fa-facebook": "Facebook",
                        "fa-twitter": "Twitter",
                        "fa-google-plus": "Google+",
                        "fa-linkedin": "Linkedin",
                        "fa-youtube": "YouTube",
                        "fa-vimeo-square": "Vimeo",
                        "fa-instagram": "Instagram",
                        "fa-pinterest-p": "Pinterest",
                        "fa-dribbble": "Dribbble",
                        "fa-yelp": "Yelp",
                        "fa-flickr": "Flickr",
                        "fa-vine": "Vine"
                    },
                    "default_value": [],
                    "allow_null": 0,
                    "multiple": 0,
                    "ui": 0,
                    "ajax": 0,
                    "return_format": "value",
                    "placeholder": "",
                    "disabled": 0,
                    "readonly": 0
                },
                {
                    "key": "field_550fdfb5dc123",
                    "label": "URL",
                    "name": "url_option",
                    "type": "text",
                    "instructions": "Please paste in a correct link for social network you've selected.",
                    "required": 0,
                    "conditional_logic": 0,
                    "wrapper": {
                        "width": 81,
                        "class": "",
                        "id": ""
                    },
                    "default_value": "",
                    "placeholder": "http:\/\/www.network.com",
                    "prepend": "",
                    "append": "",
                    "formatting": "none",
                    "maxlength": "",
                    "readonly": 0,
                    "disabled": 0
                }
            ]
        },
        {
            "key": "field_565b0c31ae518",
            "label": "Main Slider",
            "name": "",
            "type": "tab",
            "instructions": "",
            "required": 0,
            "conditional_logic": 0,
            "wrapper": {
                "width": "",
                "class": "",
                "id": ""
            },
            "placement": "top",
            "endpoint": 0
        },
        {
            "key": "field_58120f36c8e7b",
            "label": "Main Slider",
            "name": "main_slider",
            "type": "repeater",
            "instructions": "",
            "required": 0,
            "conditional_logic": 0,
            "wrapper": {
                "width": "",
                "class": "",
                "id": ""
            },
            "collapsed": "",
            "min": 1,
            "max": 1,
            "layout": "block",
            "button_label": "",
            "sub_fields": [
                {
                    "key": "field_550c440c798f3",
                    "label": "Speed",
                    "name": "slider_speed",
                    "type": "text",
                    "instructions": "Please, type a time each slide needed to be shown.",
                    "required": 1,
                    "conditional_logic": 0,
                    "wrapper": {
                        "width": "",
                        "class": "",
                        "id": ""
                    },
                    "default_value": 5000,
                    "placeholder": "Slider Speed",
                    "prepend": "",
                    "append": "milliseconds",
                    "maxlength": "",
                    "readonly": 0,
                    "disabled": 0
                },
                {
                    "key": "field_550c4415798f4",
                    "label": "Navigation",
                    "name": "slider_navigation",
                    "type": "radio",
                    "instructions": "Do you want navigation arrows to be shown?",
                    "required": 1,
                    "conditional_logic": 0,
                    "wrapper": {
                        "width": "",
                        "class": "",
                        "id": ""
                    },
                    "choices": {
                        "true": "Enable",
                        "false": "Disable"
                    },
                    "other_choice": 0,
                    "save_other_choice": 0,
                    "default_value": "true",
                    "layout": "horizontal",
                    "allow_null": 0,
                    "return_format": "value"
                },
                {
                    "key": "field_550c4443798f5",
                    "label": "Pagination",
                    "name": "slider_pagination",
                    "type": "radio",
                    "instructions": "Do you want pagination to be shown?",
                    "required": 1,
                    "conditional_logic": 0,
                    "wrapper": {
                        "width": "",
                        "class": "",
                        "id": ""
                    },
                    "choices": {
                        "true": "Enable",
                        "false": "Disable"
                    },
                    "other_choice": 0,
                    "save_other_choice": 0,
                    "default_value": "true",
                    "layout": "horizontal",
                    "allow_null": 0,
                    "return_format": "value"
                },
                {
                    "key": "field_550c457711ec3",
                    "label": "Autoplay",
                    "name": "slider_autoplay",
                    "type": "radio",
                    "instructions": "Do you want slider to autoplay?",
                    "required": 1,
                    "conditional_logic": 0,
                    "wrapper": {
                        "width": "",
                        "class": "",
                        "id": ""
                    },
                    "choices": {
                        "true": "Enable",
                        "false": "Disable"
                    },
                    "other_choice": 0,
                    "save_other_choice": 0,
                    "default_value": "true",
                    "layout": "horizontal",
                    "allow_null": 0,
                    "return_format": "value"
                },
                {
                    "key": "field_550c4469798f6",
                    "label": "Fade Effect",
                    "name": "slide_fade_effect",
                    "type": "radio",
                    "instructions": "Do you want slider to have fade effect?",
                    "required": 1,
                    "conditional_logic": 0,
                    "wrapper": {
                        "width": "",
                        "class": "",
                        "id": ""
                    },
                    "choices": {
                        "true": "Enable",
                        "false": "Disable"
                    },
                    "other_choice": 0,
                    "save_other_choice": 0,
                    "default_value": "true",
                    "layout": "horizontal",
                    "allow_null": 0,
                    "return_format": "value"
                }
            ]
        },
        {
            "key": "field_565b0c91ae519",
            "label": "Testimonials Slider",
            "name": "",
            "type": "tab",
            "instructions": "",
            "required": 0,
            "conditional_logic": 0,
            "wrapper": {
                "width": "",
                "class": "",
                "id": ""
            },
            "placement": "top",
            "endpoint": 0
        },
        {
            "key": "field_58120f7bc8e7c",
            "label": "Testimonials Slider",
            "name": "testimonials_slider",
            "type": "repeater",
            "instructions": "",
            "required": 0,
            "conditional_logic": 0,
            "wrapper": {
                "width": "",
                "class": "",
                "id": ""
            },
            "collapsed": "",
            "min": 1,
            "max": 1,
            "layout": "block",
            "button_label": "",
            "sub_fields": [
                {
                    "key": "field_55715abaae93e",
                    "label": "Speed",
                    "name": "testimonials_slider_speed",
                    "type": "text",
                    "instructions": "Please, type a time each slide needed to be shown.",
                    "required": 1,
                    "conditional_logic": 0,
                    "wrapper": {
                        "width": "",
                        "class": "",
                        "id": ""
                    },
                    "default_value": 1500,
                    "placeholder": "Slider Speed",
                    "prepend": "",
                    "append": "milliseconds",
                    "maxlength": "",
                    "readonly": 0,
                    "disabled": 0
                },
                {
                    "key": "field_55715b1aae93f",
                    "label": "Navigation",
                    "name": "testimonials_slider_navigation",
                    "type": "radio",
                    "instructions": "Do you want navigation arrows to be shown?",
                    "required": 1,
                    "conditional_logic": 0,
                    "wrapper": {
                        "width": "",
                        "class": "",
                        "id": ""
                    },
                    "choices": {
                        "true": "Enable",
                        "false": "Disable"
                    },
                    "other_choice": 0,
                    "save_other_choice": 0,
                    "default_value": "true",
                    "layout": "horizontal",
                    "allow_null": 0,
                    "return_format": "value"
                },
                {
                    "key": "field_55715bc5ae940",
                    "label": "Pagination",
                    "name": "testimonials_slider_pagination",
                    "type": "radio",
                    "instructions": "Do you want pagination to be shown?",
                    "required": 1,
                    "conditional_logic": 0,
                    "wrapper": {
                        "width": "",
                        "class": "",
                        "id": ""
                    },
                    "choices": {
                        "true": "Enable",
                        "false": "Disable"
                    },
                    "other_choice": 0,
                    "save_other_choice": 0,
                    "default_value": "true",
                    "layout": "horizontal",
                    "allow_null": 0,
                    "return_format": "value"
                },
                {
                    "key": "field_55715d41ca3a1",
                    "label": "Autoplay",
                    "name": "testimonials_slider_autoplay",
                    "type": "radio",
                    "instructions": "Do you want slider to autoplay?",
                    "required": 0,
                    "conditional_logic": 0,
                    "wrapper": {
                        "width": "",
                        "class": "",
                        "id": ""
                    },
                    "choices": {
                        "true": "Enable",
                        "false": "Disable"
                    },
                    "other_choice": 0,
                    "save_other_choice": 0,
                    "default_value": "true",
                    "layout": "horizontal",
                    "allow_null": 0,
                    "return_format": "value"
                }
            ]
        },
        {
            "key": "field_5811e9e61c270",
            "label": "Footer Options",
            "name": "",
            "type": "tab",
            "instructions": "",
            "required": 0,
            "conditional_logic": 0,
            "wrapper": {
                "width": "",
                "class": "",
                "id": ""
            },
            "placement": "top",
            "endpoint": 0
        },
        {
            "key": "field_58120ee5c8e7a",
            "label": "Footer Options",
            "name": "footer_options",
            "type": "repeater",
            "instructions": "",
            "required": 0,
            "conditional_logic": 0,
            "wrapper": {
                "width": "",
                "class": "",
                "id": ""
            },
            "collapsed": "",
            "min": 1,
            "max": 1,
            "layout": "block",
            "button_label": "",
            "sub_fields": [
                {
                    "key": "field_550fe23921e40",
                    "label": "Copyright",
                    "name": "copyright_options",
                    "type": "text",
                    "instructions": "Please, write copyright information for your website:",
                    "required": 0,
                    "conditional_logic": 0,
                    "wrapper": {
                        "width": "",
                        "class": "",
                        "id": ""
                    },
                    "default_value": "",
                    "placeholder": "\u00a9 Copyright 2016",
                    "prepend": "",
                    "append": "",
                    "maxlength": "",
                    "readonly": 0,
                    "disabled": 0
                }
            ]
        }
    ],
    "location": [
        [
            {
                "param": "options_page",
                "operator": "==",
                "value": "theme-general-settings"
            }
        ]
    ],
    "menu_order": 0,
    "position": "normal",
    "style": "seamless",
    "label_placement": "top",
    "instruction_placement": "label",
    "hide_on_screen": "",
    "active": 1,
    "description": "",
    "modified": 1478184312
}